[{
    "name": "Elements of Sociology",
    "ISBN": 9780199033003,
    "price": 95,
    "purchaseLink": "https://www.vitalsource.com/en-ca/products/-v9780199033010"
  },
  {
    "name": "Interplay",
    "ISBN": 9780199033478,
    "price": 110,
    "purchaseLink": "https://www.vitalsource.com/en-ca/products/-v9780199033522"
  },
  {
    "name": "Public Relations",
    "ISBN": 9780199029914,
    "price": 110,
    "purchaseLink": "https://www.vitalsource.com/en-ca/products/-v9780199029952"
  },
  {
    "name": "Media and Communication in Canada",
    "ISBN": 9780199033218,
    "price": 110,
    "purchaseLink": "https://www.vitalsource.com/en-ca/products/-v9780199033256"
  },
  {
    "name": "The Past in Perspective",
    "ISBN": 9780190059934,
    "price": 115,
    "purchaseLink": "https://www.vitalsource.com/en-ca/products/-v9780190059941"
  },
  {
    "name": "Core Concepts in Cultural Anthropology",
    "ISBN": 9780190924751,
    "price": 67,
    "purchaseLink": "https://www.vitalsource.com/en-ca/products/-v9780190924768"
  },
  {
    "name": "Archaeology and Humanity's Story",
    "ISBN": 9780190930127,
    "price": 100,
    "purchaseLink": "https://www.vitalsource.com/en-ca/products/-v9780190930134"
  },
  {
    "name": "Art Matters",
    "ISBN": 9780199946518,
    "price": 150,
    "purchaseLink": "https://www.vitalsource.com/en-ca/products/-v9780199946556"
  },
  {
    "name": "Food and Sustainability",
    "ISBN": 9780198814375,
    "price": 100,
    "purchaseLink": "https://www.vitalsource.com/en-ca/products/-v9780192545626"
  },
  {
    "name": "evelopmental Biology",
    "ISBN": 9781605358222,
    "price": 217,
    "purchaseLink": "https://www.vitalsource.com/en-ca/products/-v9781605358239"
  },
  {
    "name": "Introduction to Bioinformatics",
    "ISBN": 9780198794141,
    "price": 100,
    "purchaseLink": "https://www.vitalsource.com/en-ca/products/-v9780190925338"
  },
  {
    "name": "An Introduction to Conservation Biology",
    "ISBN": 9781605358970,
    "price": 125,
    "purchaseLink": "https://www.vitalsource.com/en-ca/products/-v9781605359199"
  },
  {
    "name": "Business Ethics",
    "ISBN": 9780198810070,
    "price": 95,
    "purchaseLink": "https://www.vitalsource.com/en-ca/products/-v9780192554888"
  },
  {
    "name": "Ancient Mediterranean Civilizations",
    "ISBN": 9780199946518,
    "price": 88,
    "purchaseLink": "https://www.vitalsource.com/en-ca/products/-v9780190080952"
  }
]